{
    "LanguageName": "日本語",

    "LoadingText": "ロード中...",
    "OkButton": "OK",
    "CancelButton": "キャンセル",
    "YesButton": "はい",
    "NoButton": "いいえ",
    "ContinueButton": "続ける",
    "BackButton": "戻る",
    "ExitButton": "終了",
    "EditButton": "編集",
    "SaveButton": "セーブ",
    "CopyButton": "コピー",
    "ChooseFileButton": "ファイルを選択...",
    "DefaultValueText": "{} (デフォルト)",
    "ErrorPopup": {
        "TitleText": "エラー！"
    },
    
    "TitleScreen": {
        "DemoText": "DEMO",
        "SingleplayerButton": "シングルプレイ",
        "MultiplayerButton": "マルチプレイ",
        "TutorialButton": "チュートリアル",
        "SettingsButton": "設定",
        "CreditsButton": "クレジット",
        "QuitButton": "終了"
    },
    
    "Singleplayer": {
        "YourWorldsText": "あなたのワールド:",
        "NoWorldsText": "ロードできるワールドがありません...",
        "InvalidWorldButton": "{} (無効)",
        "OldWorldButton": "{} (旧バージョン)",
        "NewWorldButton": "新しいワールド",
        "WorldConversionPopup": {
            "TitleText": "新しいワールド形式に変換しますか?",
            "OldWorldVersionText": "ワールド「{0}」は、現在のバージョン（{2}）と互換性のない古いバージョン（{1}）のワールド形式を使用しているため、読み込むことができません。",
            "OldWorldVersionlessText": "ワールド「{}」は、現在のバージョンと互換性のない古いバージョンのワールド形式を使用しているため、読み込むことができません。",
            "ConversionPromptText": "ワールドを現在のバージョンに変換しますか？ あらかじめバックアップをとっておくことをおすすめします。"
        },
        "InvalidWorldPopup": {
            "TitleText": "無効なワールドです！",
            "InvalidVersionText": "ワールド「{}」は、4D Minerの将来のバージョンで作られているか、もしくはバージョン番号が無効なため、読み込むことができません。"
        }
    },

    "Multiplayer": {
        "ServerAddressText": "サーバーアドレス:",
        "DisplayNameText": "表示名:",
        "DisplayNameInput": "プレイヤー",
        "UuidText": "UUID:",
        "UuidDescriptionText": "UUIDは、あなたがこのメニューを開いたときに生成される秘密の値です。\nUUIDによって、異なるサーバーであなたの進行度を保存することができます。\n\n決してこの値を他人に教えないでください。\n「uuid.txt」ファイルを置き換えるか編集することで、以前のインストールからUUIDを移行することができます。",
        "JoinButton": "参加！",
        "ChangeSkinButton": "スキンを変更",
        "Status": {
            "ResolvingHostText": "ホストを解決中...",
            "ConnectingText": "接続中...",
            "AuthenticatingText": "認証中...",
            "RemoteDisconnectedText": "エラー: サーバーから接続を遮断されました。",
            "FailedToConnectText": "エラー: 接続に失敗しました。",
            "ErrorText": "エラーが発生しました。",
            "LoadingTerrainText": "地形をロード中...",
            "QueuePositionText": "キュー内の位置: {}",
            "InvalidResponseText": "エラー: サーバーのレスポンスが無効",
            "IncompatibleVersionText": "エラー: ゲームのバージョンがサーバーのバージョンと一致しません。\n\n互換性のあるバージョン: {}",
            "ServerFullText": "エラー: サーバーが満員です。",
            "LostConnectionText": "エラー: 接続が切断されました。"
        }
    },
    
    "CreateWorld": {
        "WorldNameText": "ワールド名:",
        "WorldNameInput": "新しいワールド",
        "WorldSeedText": "ワールドシード:",
        "FlatWorldCheckbox": "フラットワールド",
        "GenerateCavesCheckbox": "洞窟を生成（時間がかかります）",
        "CaveSizeSlider": "洞窟のサイズ: {}%",
        "CaveFrequencySlider": "洞窟の出現頻度: {}%",
        "CaveDetailLevelSlider": "洞窟のディテールレベル: {} (パフォーマンスに大きく影響します)",
        "BiomeSizeSlider": "バイオームのサイズ: {}%",
        "TerrainAmplificationSlider": "地形の起伏: {}%",
        "CreateNewWorldButton": "新しいワールドを作成！",
        "NoNamePopup": {
            "NoNameText": "名前のないワールドは作成できません！"
        }
    },

    "WorldConverter": {
        "CloseWarningText": "ゲームを閉じないでください！",
        "BackupWorldTitle": "{} (バックアップ)",
        "BackupStatusText": "ワールド「{}」をバックアップ中...",
        "ConversionStatusText": "ワールド「{}」をバージョン{}から{}に変換中...",
        "ConversionFinishedText": "完了！",
        "BackupPopup": {
            "TitleText": "ファイル「{}」をバックアップしますか？",
            "PromptText": "ワールド「{}」のセーブデータはワールド変換によって破損する可能性があります。事前にバックアップを生成しますか？"
        },
        "ErrorPopup": {
            "GenericConversionErrorText": "ワールドをバージョン{}にアップデートしている途中にエラーが発生しました。",
            "InvalidObjectText": "無効なオブジェクト「{}」をコピーできません。ディレクトリあるいは通常のファイルである必要があります。",
            "CopyErrorText": "オブジェクト「{}」をコピーできません: 「{}」",
            "MissingChunksDirText": "「chunks」ディレクトリが見つかりません。",
            "UnableToOpenFileText": "ファイル「{}」を開けません。"
        },
        "ConversionStatus": {
            "CleaningUpText": "クリーンアップ中..."
        }
    },
    
    "WorldGen": {
        "ProgressText": "{}/{}のチャンクが読み込まれました"
    },

    "Settings": {
        "ControlsButton": "操作",
        "FullscreenButton": {
            "EnterText": "フルスクリーンを開始",
            "ExitText": "フルスクリーンを終了"
        },
        "RenderDistanceSlider": "描画距離: {}",
        "ScrollSensitivitySlider": "スクロール感度:",
        "LookSensitivitySlider": "カメラ操作感度:",
        "InvertLookXCheckbox": "X軸操作を反転",
        "InvertLookYCheckbox": "Y軸操作を反転",
        "FovSlider": {
            "LabelText": "視野角: {}",
            "ValueText": "{} 度"
        },
        "DifficultySlider": {
            "LabelText": "難易度: {}",
            "EasyText": "イージー (モンスターが出現しません)",
            "NormalText": "ノーマル",
            "HardText": "ハード"
        },
        "SmoothLightingCheckbox": "スムースライティング",
        "ShadowsCheckbox": "影",
        "ColoredLightsCheckbox": "色付きライト",
        "Forg": {
            "LabelText": "キャエル: {}",
            "Names": {
                "Frank": "フランク",
                "Fernanda": "フェルナンダ"
            }
        },
        "Audio": {
            "LabelText": "サウンド:",
            "GlobalVolumeSlider": "全体:",
            "MusicVolumeSlider": "音楽:",
            "CreatureVolumeSlider": "生き物:",
            "AmbienceVolumeSlider": "環境音:"
        },
        "Multiplayer": {
            "LabelText": "マルチプレイヤー:",
            "ChatCheckbox": "チャットを表示",
            "NametagsCheckbox": "プレイヤーのネームタグを表示",
            "SkinsCheckbox": "カスタムプレイヤースキンを表示"
        }
    },

    "Tutorial": {
        "Slideshow": {
            "Slide1": {
                "Text1": "このチュートリアルはあなたに4次元空間を理解してもらうためにデザインされています。\n\n\n\n2次元空間と3次元空間の違いを見比べることを通して、3次元空間が4次元空間とどのように関わるかについてのアイデアを得ることができます。"
            },
            "Slide2": {
                "Text1": "こちらはキャエルの{}です。（そう、キャエルです）",
                "Text2": "キャエルは2次元の存在で、2次元の平面の上にしか存在できません。しかし、だからといって第3の次元を体験できないわけではありません！\n\n\n\n3次元世界の中にいるキャエルは、3次元世界を横切る2次元断面の上を移動できます。"
            },
            "Slide3": {
                "Text1": "キャエルは、彼らのいる平面を3次元で回転させる特別な能力も持っています。これによって、彼らは好きな断面を自由に見ることができるのです！",
                "Text2": "次のページでは、{}を操作して、この能力を直接体験できます！"
            },
            "Slide4": {
                "Text1": "同じロジックが、3次元の存在である私たちが第4の次元を体験することにも適用できます。\n\n\nマウスをスクロールすると、4次元の世界で視界が回転し、地形のまったく新しい側面を見ることができます！",
                "Text2": "これで4D Minerを遊ぶ準備は完了です！ もし4次元の道案内が必要なら、",
                "Text3": "コンパスを探してください！"
            }
        },
        "ForgGame": {
            "2DViewText": "WASDか矢印キーでキャエルの{}が移動します。\n\nマウスのスクロールで2次元断面が回転します！",
            "3DViewText": "マウスのドラッグで3Dビューを操作"
        }
    },

    "Game": {
        "Chat": {
            "LabelText": "チャット:"
        },
        "CraftingMenu": {
            "LabelText": "クラフト:"
        },
        "Compass": {
            "PositionText": "座標: {0}, {1}, {2}, {3}",
            "FacingDirectionText": "視線方向: {0}, {1}, {2}, {3}",
            "XText": "X: {}",
            "YText": "Y: {}",
            "ZText": "Z: {}",
            "WText": "W: {}"
        },
        "Chest": {
            "LabelText": "チェスト:"
        },
        "Sign": {
            "LabelText": "看板:"
        }
    },

    "Pause": {
        "PausedText": "ポーズ中...",
        "BackToGameButton": "ゲームを再開...",
        "QuitToTitleButton": "終了してタイトルに戻る"
    },

    "DeathScreen": {
        "RetryButton": "リトライ..."
    },

  "Items": {
    "Air": "空気",
    "Grass": "草ブロック",
    "Dirt": "土",
    "Stone": "石",
    "Wood": "木",
    "Leaf": "葉",
    "SemiMoltenRock": "半溶岩",
    "IronOre": "鉄鉱石",
    "DeadlyOre": "デッドリー鉱石",
    "Chest": "チェスト",
    "MidnightGrass": "真夜中の草ブロック",
    "MidnightSoil": "真夜中の土",
    "MidnightStone": "真夜中の石",
    "MidnightWood": "真夜中の木",
    "MidnightLeaf": "真夜中の葉",
    "Bush": "草",
    "MidnightBush": "真夜中の草",
    "RedFlower": "赤い花",
    "WhiteFlower": "白い花",
    "BlueFlower": "青い華",
    "TallGrass": "背の高い草",
    "Sand": "砂",
    "Sandstone": "砂岩",
    "Cactus": "サボテン",
    "Snow": "雪",
    "Ice": "氷",
    "SnowyBush": "雪のかかった草",
    "Glass": "ガラス",
    "SolenoidOre": "ソレノイド鉱石",
    "SnowyLeaf": "雪のかかった葉",
    "Pumpkin": "カボチャ",
    "JackOLantern": "ジャック・オ・ランタン",
    "PalmWood": "ヤシの木",
    "PalmLeaf": "ヤシの葉",
    "Water": "水",
    "Lava": "溶岩",
    "VolcanicRock": "火山岩",
    "GrassSlab": "草ブロックの板",
    "DirtSlab": "土の板",
    "StoneSlab": "石の板",
    "WoodSlab": "木の板",
    "SemiMoltenRockSlab": "半溶岩の板",
    "MidnightStoneSlab": "真夜中の石の板",
    "MidnightWoodSlab": "真夜中の木の板",
    "SandstoneSlab": "砂岩の板",
    "SnowSlab": "雪の板",
    "IceSlab": "氷の板",
    "GlassSlab": "ガラスの板",
    "PalmWoodSlab": "ヤシの木の板",
    "VolcanicRockSlab": "火山岩の板",
    "Stick": "棒",
    "Hammer": "ハンマー",
    "IronPick": "鉄のピッケル",
    "DeadlyPick": "デッドリーピッケル",
    "IronAxe": "鉄の斧",
    "DeadlyAxe": "デッドリーアックス",
    "Ultrahammer": "ウルトラハンマー",
    "SolenoidCollector": "ソレノイドコレクター",
    "Rock": "石ころ",
    "Hypersilk": "ハイパーシルク",
    "IronBars": "鉄の延べ棒",
    "DeadlyBars": "デッドリーバー",
    "SolenoidBars": "ソレノイドバー",
    "Compass": "コンパス",
    "4DGlasses": "4Dゴーグル",
    "KleinBottle": "クラインの壺",
    "HealthPotion": "HPポーション",
    "RedLens": "赤いレンズ",
    "GreenLens": "緑のレンズ",
    "BlueLens": "青いレンズ",
    "Alidade": "アリダード",
    "Sign": "看板",
    "Bucket": "バケツ",
    "WaterBucket": "水入りバケツ",
    "LavaBucket": "溶岩入りバケツ"
  }
}