{
    "LanguageName": "한국어",

    "LoadingText": "로딩중...",
    "OkButton": "확인",
    "CancelButton": "취소",
    "YesButton": "예",
    "NoButton": "아니요",
    "ContinueButton": "계속하기",
    "BackButton": "뒤로",
    "ExitButton": "나가기",
    "EditButton": "편집",
    "SaveButton": "저장",
    "CopyButton": "복사",
    "ChooseFileButton": "파일 선택...",
    "DefaultValueText": "{} (기본값)",
    "ErrorPopup": {
        "TitleText": "오류가 발생했습니다!"
    },
    
    "TitleScreen": {
        "DemoText": "DEMO",
        "SingleplayerButton": "싱글플레이",
        "MultiplayerButton": "멀티플레이",
        "TutorialButton": "튜토리얼",
        "SettingsButton": "설정",
        "CreditsButton": "크레딧",
        "QuitButton": "게임 종료"
    },
    
    "Singleplayer": {
        "YourWorldsText": "내 세계:",
        "NoWorldsText": "불러올 세계가 존재하지 않습니다...",
        "InvalidWorldButton": "{} (유효하지 않음)",
        "OldWorldButton": "{} (오래됨)",
        "NewWorldButton": "새로운 세계",
        "WorldConversionPopup": {
            "TitleText": "새로운 세계 형식으로 변환하시겠습니까?",
            "OldWorldVersionText": "세계 \"{}\"이(가) 현재 버전({})과 호환되지 않는 이전 버전의 세계 형식({})을 사용하고 있으므로 불러올 수 없습니다.",
            "OldWorldVersionlessText": "세계 \"{}\"은(는) 현재 버전과 호환되지 않는 이전 버전의 세계 형식을 사용하고 있으므로 불러올 수 없습니다.",
            "ConversionPromptText": "이 세계를 현재 버전으로 변경하시겠습니까? 먼저 백업을 만들 수 있는 옵션이 있습니다."
        },
        "InvalidWorldPopup": {
            "TitleText": "유효하지 않은 세계!",
            "InvalidVersionText": "세계 \"{}\"은(는) 미래 버전의 4D Miner에서 가져온 것이거나 잘못된 버전 번호를 가지고 있기 때문에 불러올 수 없습니다."
        }
    },

    "Multiplayer": {
        "ServerAddressText": "서버 주소:",
        "DisplayNameText": "표시 이름:",
        "DisplayNameInput": "플레이어",
        "UuidText": "UUID:",
        "UuidDescriptionText": "UUID는 이 메뉴를 처음 열 때 생성되는 비밀 값입니다.\nUUID는 여러 서버에 진행 상황을 저장할 수 있게 해줍니다.\n\n이 값을 절대 그 누구와도 공유하지 마세요.\n\"uuid.txt\" 파일을 교체/수정하면 이전 설치로부터 UUID를 옮겨올 수 있습니다.",
        "JoinButton": "접속!",
        "ChangeSkinButton": "스킨 변경하기",
        "Status": {
            "ResolvingHostText": "호스트를 확인하는 중...",
            "ConnectingText": "연결 중...",
            "AuthenticatingText": "인증 중...",
            "RemoteDisconnectedText": "오류: 서버에 의해 연결이 종료되었습니다.",
            "FailedToConnectText": "오류: 연결 실패.",
            "ErrorText": "오류가 발생했습니다.",
            "LoadingTerrainText": "지형 로딩중...",
            "QueuePositionText": "대기열 위치: {}",
            "InvalidResponseText": "오류: 유효하지 않은 서버 응답",
            "IncompatibleVersionText": "오류: 게임 버전이 서버 버전과 일치하지 않습니다.\n\n호환되는 버전들: {}",
            "ServerFullText": "오류: 서버에 인원이 가득 찼습니다.",
            "LostConnectionText": "오류: 연결 종료"
        }
    },
    
    "CreateWorld": {
        "WorldNameText": "세계 이름:",
        "WorldNameInput": "새로운 세계",
        "WorldSeedText": "세계 시드:",
        "FlatWorldCheckbox": "평지 세계",
        "GenerateCavesCheckbox": "동굴 생성하기 (느립니다)",
        "CaveSizeSlider": "동굴 크기: {}%",
        "CaveFrequencySlider": "동굴 빈도: {}%",
        "CaveDetailLevelSlider": "동굴 디테일 레벨: {} (성능에 심각한 영향을 줄 수 있습니다.)",
        "BiomeSizeSlider": "생물군계 크기: {}%",
        "TerrainAmplificationSlider": "지형 증폭률: {}%",
        "CreateNewWorldButton": "새로운 세계 만들기!",
        "NoNamePopup": {
            "NoNameText": "이름이 없는 세계는 만들 수 없습니다!"
        }
    },

    "WorldConverter": {
        "CloseWarningText": "게임을 종료하지 마세요!",
        "BackupWorldTitle": "{} (백업)",
        "BackupStatusText": "세계 \"{}\"을(를) 백업중입니다...",
        "ConversionStatusText": "세계 \"{}\"을(를) {} 버전에서 {} 버전으로 변환중입니다...",
        "ConversionFinishedText": "완료!",
        "BackupPopup": {
            "TitleText": "파일 \"{}\"을(를) 백업하시겠습니까?",
            "PromptText": "세계 \"{}\"의 저장 데이터는 변환 과정에서 손상될 가능성이 있습니다. 먼저 백업을 하시겠습니까?"
        },
        "ErrorPopup": {
            "GenericConversionErrorText": "세계를 버전 {}(으)로 업데이트하는 중 오류가 발생했습니다.",
            "InvalidObjectText": "유효하지 않은 객체 \"{}\"을(를) 복사할 수 없습니다. (폴더 또는 일반 파일)",
            "CopyErrorText": "객체를 복사할 수 없습니다. \"{}\": \"{}\"",
            "MissingChunksDirText": "\"chunks\" 폴더가 없습니다.",
            "UnableToOpenFileText": "파일 \"{}\"을(를) 열 수 없습니다."
        },
        "ConversionStatus": {
            "CleaningUpText": "정리 중..."
        }
    },
    
    "WorldGen": {
        "ProgressText": "{}/{} 청크 로딩됨"
    },

    "Settings": {
        "ControlsButton": "조작",
        "FullscreenButton": {
            "EnterText": "전체화면 열기",
            "ExitText": "전체화면 나가기"
        },
        "RenderDistanceSlider": "랜더링 거리: {}",
        "ScrollSensitivitySlider": "스크롤 민감도:",
        "LookSensitivitySlider": "시야 민감도:",
        "InvertLookXCheckbox": "시야 X 반전",
        "InvertLookYCheckbox": "시야 Y 반전",
        "FovSlider": {
            "LabelText": "FOV: {}",
            "ValueText": "{}도"
        },
        "DifficultySlider": {
            "LabelText": "난이도: {}",
            "EasyText": "쉬움 (몬스터 없음)",
            "NormalText": "보통",
            "HardText": "어려움"
        },
        "SmoothLightingCheckbox": "부드러운 조명",
        "ShadowsCheckbox": "그림자",
        "ColoredLightsCheckbox": "색이 있는 조명",
        "Forg": {
            "LabelText": "개루기: {}",
            "Names": {
                "Frank": "프랭크",
                "Fernanda": "페르난다"
            }
        },
        "Audio": {
            "LabelText": "오디오:",
            "GlobalVolumeSlider": "전체 볼륨:",
            "MusicVolumeSlider": "음악 볼륨:",
            "CreatureVolumeSlider": "생물 볼륨:",
            "AmbienceVolumeSlider": "배경 볼륨:"
        },
        "Multiplayer": {
            "LabelText": "멀티플레이:",
            "ChatCheckbox": "채팅 표시하기",
            "NametagsCheckbox": "플레이어 이름표 보이기",
            "SkinsCheckbox": "플레이어 스킨 보이기"
        }
    },

    "Tutorial": {
        "Slideshow": {
            "Slide1": {
                "Text1": "이 튜토리얼은 여러분이 4차원 공간에 대해 이해할 수 있도록 도와주기 위해 고안되었습니다.\n\n\n\n2차원과 3차원 공간의 차이를 비교하며 3차원과 4차원 공간간의 관계를 이해할 수 있습니다."
            },
            "Slide2": {
                "Text1": "이것은 개루기 {}입니다. (네, 개루기입니다)",
                "Text2": "개루기는 2차원 존재로, 2차원 평면에서만 존재할 수 있습니다. 하지만 그렇다고 이들이 3차원 공간을 탐험할 수 없는 건 아닙니다!\n\n\n\n개루기는 3차원 세계의 그 어느 2차원 단면에서도 자유롭게 이동할 수 있습니다."
            },
            "Slide3": {
                "Text1": "개루기는 또한 3차원에서 자신이 위치한 평면을 회전하여 원하는 모든 단면을 볼 수 있는 독특한 능력을 가지고 있습니다!",
                "Text2": "다음 장면에서는 {}을(를) 제어하고 이 기능을 직접 체험해 보실 수 있습니다!"
            },
            "Slide4": {
                "Text1": "이와 같은 논리는 3차원과 4차원간에도 적용됩니다.\n\n\n여러분은 마우스 휠을 스크롤하여 4차원 세계에서의 시야를 회전시킬 수 있으며, 완전히 다른 지형의 특성들을 볼 수 있습니다!",
                "Text2": "이제 여러분은 4D Miner를 플레이할 준비가 되었습니다! 4차원 세계를 탐험하는 데 도움이 필요하다면,",
                "Text3": "나침반을 찾으세요!"
            }
        },
        "ForgGame": {
            "2DViewText": "WASD 또는 화살표키로 개루기 {}을(를) 이동시키세요.\n\n마우스를 스크롤하여 2D 단면을 회전시키세요!",
            "3DViewText": "클릭 + 드래그하여 3D 시야를 조정하세요"
        }
    },

    "Game": {
        "Chat": {
            "LabelText": "대화:"
        },
        "CraftingMenu": {
            "LabelText": "제작:"
        },
        "Compass": {
            "PositionText": "위치: {0}, {1}, {2}, {3}",
            "FacingDirectionText": "시선 방향: {0}, {1}, {2}, {3}",
            "XText": "X: {}",
            "YText": "Y: {}",
            "ZText": "Z: {}",
            "WText": "W: {}"
        },
        "Chest": {
            "LabelText": "상자:"
        },
        "Sign": {
            "LabelText": "표지판:"
        }
    },

    "Pause": {
        "PausedText": "정지...",
        "BackToGameButton": "게임으로...",
        "QuitToTitleButton": "타이틀 화면으로 나가기"
    },

    "DeathScreen": {
        "RetryButton": "다시 시작..."
    },

  "Items": {
    "Air": "공기",
    "Grass": "잔디",
    "Dirt": "흙",
    "Stone": "돌",
    "Wood": "나무",
    "Leaf": "나뭇잎",
    "SemiMoltenRock": "반쯤 녹은 암석",
    "IronOre": "철광석",
    "DeadlyOre": "치명적인 광석",
    "Chest": "상자",
    "MidnightGrass": "미드나이트 잔디",
    "MidnightSoil": "미드나이트 흙",
    "MidnightStone": "미드나이트 돌",
    "MidnightWood": "미드나이트 나무",
    "MidnightLeaf": "미드나이트 나뭇잎",
    "Bush": "덤불",
    "MidnightBush": "미드나이트 덤불",
    "RedFlower": "빨간 꽃",
    "WhiteFlower": "흰 꽃",
    "BlueFlower": "파란 꽃",
    "TallGrass": "긴 잔디",
    "Sand": "모래",
    "Sandstone": "사암",
    "Cactus": "선인장",
    "Snow": "눈",
    "Ice": "얼음",
    "SnowyBush": "눈에 덮힌 덤불",
    "Glass": "유리",
    "SolenoidOre": "솔레노이드 광석",
    "SnowyLeaf": "눈에 덮힌 나뭇잎",
    "Pumpkin": "호박",
    "JackOLantern": "잭 오 랜턴",
    "PalmWood": "야자나무",
    "PalmLeaf": "야자나무 잎",
    "Water": "물",
    "Lava": "용암",
    "VolcanicRock": "화산암",
    "GrassSlab": "잔디 반 블록",
    "DirtSlab": "흙 반 블록",
    "StoneSlab": "돌 반 블록",
    "WoodSlab": "나무 반 블록",
    "SemiMoltenRockSlab": "반쯤 녹은 암석 반 블록",
    "MidnightStoneSlab": "미드나이트 돌 반 블록",
    "MidnightWoodSlab": "미드나이트 나무 반 블록",
    "SandstoneSlab": "사암 반 블록",
    "SnowSlab": "눈 반 블록",
    "IceSlab": "얼음 반 블록",
    "GlassSlab": "유리 반 블록",
    "PalmWoodSlab": "야자나무 반 블록",
    "VolcanicRockSlab": "화산암 반 블록",
    "Stick": "막대",
    "Hammer": "망치",
    "IronPick": "철 곡괭이",
    "DeadlyPick": "치명적인 곡괭이",
    "IronAxe": "철 도끼",
    "DeadlyAxe": "치명적인 도끼",
    "Ultrahammer": "울트라해머",
    "SolenoidCollector": "솔레노이드 수집기",
    "Rock": "돌",
    "Hypersilk": "하이퍼실크",
    "IronBars": "철괴",
    "DeadlyBars": "치명적인 주괴",
    "SolenoidBars": "솔레노이드 주괴",
    "Compass": "나침반",
    "4DGlasses": "4D 안경",
    "KleinBottle": "클라인의 병",
    "HealthPotion": "체력 포션",
    "RedLens": "빨강 렌즈",
    "GreenLens": "초록 렌즈",
    "BlueLens": "파랑 렌즈",
    "Alidade": "조준의",
    "Sign": "표지판",
    "Bucket": "양동이",
    "WaterBucket": "물 양동이",
    "LavaBucket": "용암 양동이"
  }
}
